Exploring the BRFSS data
…
summary(brfss2013$sex)

##   Male Female   NA's 
## 201313 290455      7

We then extracted and viewed the summary of the three variables combined in groups according to their count

brfss2013 %>% 
  group_by(educa,income2,sex) %>% 
  summarise(count = n())

## # A tibble: 130 x 4
## # Groups:   educa, income2 [?]
##                                         educa           income2    sex
##                                        <fctr>            <fctr> <fctr>
##  1 Never attended school or only kindergarten Less than $10,000   Male
##  2 Never attended school or only kindergarten Less than $10,000 Female
##  3 Never attended school or only kindergarten Less than $15,000   Male
##  4 Never attended school or only kindergarten Less than $15,000 Female
##  5 Never attended school or only kindergarten Less than $20,000   Male
##  6 Never attended school or only kindergarten Less than $20,000 Female
##  7 Never attended school or only kindergarten Less than $25,000   Male
##  8 Never attended school or only kindergarten Less than $25,000 Female
##  9 Never attended school or only kindergarten Less than $35,000   Male
## 10 Never attended school or only kindergarten Less than $35,000 Female
## # ... with 120 more rows, and 1 more variables: count <int>
…
Research quesion 2:

Research Question 2: Is a respondents amount of time slept related to whether that individual is a veteran?

First, I extracted the required variables (sleptim1 & veteran3) from the larger brfss2013 dataset, grouped and summarized them based on their count.

brfss2013 %>% 
  group_by(sleptim1,veteran3) %>% 
  summarise(count = n())

## # A tibble: 66 x 3
## # Groups:   sleptim1 [?]
##    sleptim1 veteran3 count
##       <int>   <fctr> <int>
##  1        0       NA     1
##  2        1      Yes    30
##  3        1       No   198
##  4        2      Yes   183
##  5        2       No   886
##  6        2       NA     7
##  7        3      Yes   456
##  8        3       No  3027
##  9        3       NA    13
## 10        4      Yes  1975
## # ... with 56 more rows
…
The plot indicates a larger amount of non-veterans having a normal sleep time as there is a wider band within the regions of 6-9 hours as opposed to the veterans which have a narrower band located within the regions of 6-9 hours. This indicates that there is a larger amount of non-veterans with normal sleeping hours.

Research quesion 3:

Research Question 3: Does how often we undergo physical activity show any association with our general health? Also, would being overweight/obese also influence general health?

Similar to the previous research question, I first extracted the required variables (genhtlh, X_pacat1, X_rfbmi5) from the larger brfss2013 dataset, grouped and summarized them based on their count. Following this, I selected the specific variables to place into a new smaller dataset named rsq3 and omitted all the NA values. Using the table() function I viewed a numerical summary of the data values that I will be looking at in a table format.

brfss2013 %>% 
  group_by(genhlth,X_pacat1,X_rfbmi5) %>% 
  summarise(count = n())

## # A tibble: 90 x 4
## # Groups:   genhlth, X_pacat1 [?]
##      genhlth              X_pacat1 X_rfbmi5 count
##       <fctr>                <fctr>   <fctr> <int>
##  1 Excellent         Highly active       No 16665
##  2 Excellent         Highly active      Yes 13637
##  3 Excellent         Highly active       NA   881
##  4 Excellent                Active       No  7545
##  5 Excellent                Active      Yes  6803
##  6 Excellent                Active       NA   533
##  7 Excellent Insufficiently active       No  6103
##  8 Excellent Insufficiently active      Yes  6089
##  9 Excellent Insufficiently active       NA   565
## 10 Excellent              Inactive       No  4979
## # ... with 80 more rows
…
